[
  {
    "country": "RS",
    "Value 1": 110,

    "Value 2": 19,

    "Value 3": 80,

    "Value 4": 174,

    "Value 5": 194,

    "Value 6": 98
  },
  {
    "country": "SC",
    "Value 1": 127,

    "Value 2": 78,

    "Value 3": 2,

    "Value 4": 41,

    "Value 5": 135,

    "Value 6": 94
  },
  {
    "country": "PR",
    "Value 1": 76,

    "Value 2": 148,

    "Value 3": 109,

    "Value 4": 98,

    "Value 5": 194,

    "Value 6": 24
  },
  {
    "country": "MS",
    "Value 1": 86,

    "Value 2": 35,

    "Value 3": 8,

    "Value 4": 162,

    "Value 5": 20,

    "Value 6": 47
  },
  {
    "country": "MG",
    "Value 1": 112,

    "Value 2": 128,

    "Value 3": 166,

    "Value 4": 90,

    "Value 5": 17,

    "Value 6": 176
  },
  {
    "country": "RJ",
    "Value 1": 188,

    "Value 2": 14,

    "Value 3": 128,

    "Value 4": 133,

    "Value 5": 135,

    "Value 6": 23
  },
  {
    "country": "SP",
    "Value 1": 189,

    "Value 2": 176,

    "Value 3": 90,

    "Value 4": 130,

    "Value 5": 34,

    "Value 6": 136
  }
]
