[
  {
    "Raoul": 176,
    "Josiane": 98,
    "Marcel": 27,
    "René": 121,
    "Paul": 115,
    "Jacques": 27
  },
  {
    "Raoul": 61,
    "Josiane": 187,
    "Marcel": 193,
    "René": 109,
    "Paul": 199,
    "Jacques": 128
  },
  {
    "Raoul": 69,
    "Josiane": 61,
    "Marcel": 75,
    "René": 108,
    "Paul": 27,
    "Jacques": 197
  },
  {
    "Raoul": 160,
    "Josiane": 167,
    "Marcel": 79,
    "René": 168,
    "Paul": 71,
    "Jacques": 27
  },
  {
    "Raoul": 98,
    "Josiane": 118,
    "Marcel": 85,
    "René": 199,
    "Paul": 77,
    "Jacques": 84
  },
  {
    "Raoul": 73,
    "Josiane": 21,
    "Marcel": 26,
    "René": 179,
    "Paul": 185,
    "Jacques": 154
  },
  {
    "Raoul": 168,
    "Josiane": 88,
    "Marcel": 31,
    "René": 167,
    "Paul": 82,
    "Jacques": 41
  },
  {
    "Raoul": 135,
    "Josiane": 97,
    "Marcel": 179,
    "René": 95,
    "Paul": 185,
    "Jacques": 50
  },
  {
    "Raoul": 193,
    "Josiane": 39,
    "Marcel": 134,
    "René": 88,
    "Paul": 171,
    "Jacques": 176
  }
]
